{
    "Selection": "Uct",
    "Expansion": "Single",
    "Simulation": "Contextual",
    "Backpropagation": "Simple,Contextual",
    "cValue": 0.1821697596405978,
    "cValueUpper": 1.0,
    "cValueLower": 0.0,
    "gamma": 0.32433081146760084,
    "gammaUpper": 1.0,
    "gammaLower": 0.0,
    "threshold": 0.5037772481941049,
    "thresholdUpper": 1.0,
    "thresholdLower": 0.0
}