{
    "Selection": "Uct",
    "Expansion": "Mast",
    "Simulation": "MastFullTree",
    "Backpropagation": "Simple,Mast",
    "cValue": 0.2875247895717621,
    "cValueUpper": 1.0,
    "cValueLower": 0.0,
    "tau": 12.753470242023468,
    "tauUpper": 100.0,
    "tauLower": 0.0
}