{
    "Selection": "Uct",
    "Expansion": "Single",
    "Simulation": "Contextual",
    "Backpropagation": "Simple",
    "cValue": 0.2883582836414371,
    "gamma": 0.86,
    "threshold": 0.0,
    "window": -1
}