{
    "Selection": "UctFPU",
    "Expansion": "Single",
    "Simulation": "Random",
    "Backpropagation": "Simple",
    "startPriorityValue": 1.0238371959305606,
    "startPriorityValueUpper": 2.0,
    "startPriorityValueLower": 0.1,
    "cValue": 0.2883582836414371
}