{
  "numPlayers": 2,
  "boardSize": 4,
  "port": 61234,
  "hostname": "localhost",
  "lobby": "mylobby",
  "game": "OthelloReferee",
  "engine": "za.ac.sun.cs.ingenious.games.othello.engines.OthelloMCTSTreeGenericEngine",
  "enhancement": "../MctsEnhancementConfigs/EnhancementChoiceVanilla.json",
  "threadCount": 1,
  "turnLength": 1000
}
