{
    "scriptPath" : "../../scripts/go",
    "scriptName" : "test.sh",
    "boardSize" : 9,
    "instances" : 18,
    "threadsPerInstance" : 1,
    "turnDuration" : 3000,
    "tunedC" : 0.288,
    "bucketSplitCount" : 2,
    "maxParamSplitDepth" : 5,
    "boundMapping" : {
        "c" : "cValue",
        "V" : "vValue",
        "gamma" : "gamma",
        "beta" : "threshold",
        "threshold" : "startPriorityValue",
        "tau" : "tau"
    },
    "enhancements":{
        "Vanilla":{
            "params": ["c"],
            "Selection": "Uct",
            "Expansion": "Single",
            "Simulation": "Random",
            "Backpropagation": "Simple",
            "cValueUpper": 1.0,
            "cValueLower": 0.0
        },
        "Rave":{
            "params": ["c", "V"],
            "Selection": "Rave",
            "Expansion": "Single",
            "Simulation": "Random",
            "Backpropagation": "Simple,Rave",
            "cValueUpper": 1.0,
            "cValueLower": 0.0,
            "vValueUpper": 10000.0,
            "vValueLower": 0.0
        },
        "Contextual": {
            "params": ["c", "gamma", "beta"],
            "Selection": "Uct",
            "Expansion": "Single",
            "Simulation": "Contextual",
            "Backpropagation": "Simple,Contextual",
            "cValueUpper": 1.0,
            "cValueLower": 0.0,
            "gammaUpper": 1.0,
            "gammaLower": 0.0,
            "thresholdUpper": 1.0,
            "thresholdLower": 0.0
        },       
        "FPU":{
            "params": ["c", "threshold"],
            "Selection": "UctFPU",
            "Expansion": "Single",
            "Simulation": "Random",
            "Backpropagation": "Simple",
            "cValueUpper": 1.0,
            "cValueLower": 0.0,
            "startPriorityValueUpper": 4.5,
            "startPriorityValueLower": 0.0
        },
        "MastExpansion":{
            "params": ["c", "tau"],
            "Selection": "Uct",
            "Expansion": "Mast", 
            "Simulation": "MastFullTree",
            "Backpropagation": "Simple,Mast",
            "cValueUpper": 1.0,
            "cValueLower": 0.0,
            "tauUpper": 100.0,
            "tauLower": 0.0
        }
    }
}
